Chapter 2 Single parameter models | Bayesian Data Analysis
…
 tally<-polls%>%group_by(state,ideo)%>%summarize(n=n())

## `summarise()` has grouped output by 'state'. You can override using the
## `.groups` argument.

 statetotal<-tally%>%group_by(state)%>%summarise(statetotal=sum(n))
 tally<-left_join(tally,statetotal,by='state')
 ## average the density of the polling regions by state taking the density of each zip code (category 1-5)
 densit<-polls%>%group_by(state)%>%summarize(density=mean(density))
 
 # highest states with highest density
 densit[order(densit$density,decreasing = T),]

## # A tibble: 49 × 2
##    state         density
##    <fct>           <dbl>
##  1 washington dc    4.95
##  2 new jersey       3.99
##  3 rhode island     3.93
##  4 maryland         3.62
##  5 new york         3.60
##  6 massachusetts    3.58
##  7 connecticut      3.55
##  8 illinois         3.42
##  9 california       3.32
## 10 ohio             3.32
## # … with 39 more rows
…
